#/**
#  *
#  * English message catalog (empty)
#  *
#  * GForge: Breaking Down the Barriers to Open Source Development
#  * Copyright 1999-2001 (c) VA Linux Systems
#  * http://sourceforge.net
#  *
#  * @version   $Id$
#  *
#  */
conf	content_encoding	UTF-8
conf	mail_charset	UTF-8
