plugin_scmsvn	admin	Administration
plugin_scmsvn	anonsvn	<p><b>Accès Subversion anonyme</b></p><p>Le dépôt Subversion de ce projet peut être récupéré anonymement en utilisant la(les) commande(s) suivante(s).</p>
plugin_scmsvn	browseit	Parcourir le dépôt Subversion
plugin_scmsvn	browsetree	<b>Parcourir le dépôt Subversion</b><p>Parcourir l'arbre Subversion vous donne une vue d'ensemble du code de ce projet. Vous pouvez également voir l'historique complet de chaque fichier du dépôt.</p>
plugin_scmsvn	developername	développeur
plugin_scmsvn	devsvndav	<p><b>Accès Subversion pour développeur via DAV</b></p><p>Seuls les développeurs d'un projet peuvent accéder à l'arbre Subversion par cette méthode. Remplacez <i>developername</i> par la valeur appropriée. Fournissez votre mot de passe du site lorsqu'on vous le demande.</p>
plugin_scmsvn	devsvnssh	<p><b>Accès Subversion pour développeur via SSH</b></p><p>Seuls les développeurs d'un projet peuvent accéder à l'arbre Subversion par cette méthode. SSH doit être installé sur votre machine cliente. Remplacez <i>developername</i> par la valeur appropriée. Fournissez votre mot de passe du site lorsqu'on vous le demande.</p>
plugin_scmsvn	documentation	<p>Pour toute information complémentaire, vous pouvez vous référer à la <a href="http://svnbook.red-bean.com/">documentation de Subversion</a>.</p>
plugin_scmsvn	download_snapshot	Télécharger le snapshot nocturne de l'arbre Subversion
plugin_scmsvn	enable_svn	Utiliser Subversion
plugin_scmsvn	enable_anonymous_svn	Activer l'accès anonyme
plugin_scmsvn	error_only_projects_can_use_svn	Erreur : seuls les projets peuvent utiliser Subversion
plugin_scmsvn	error_this_project_has_turned_off	Erreur : ce projet a désactivé Subversion.
plugin_scmsvn	history	Historique du dépôt
plugin_scmsvn	nohistory	Ce projet n'a pas de dépôt Subversion.
plugin_scmsvn	section	Projet : $1
plugin_scmsvn	title	Sources
plugin_scmsvn	svn_repository	Dépôt Subversion
plugin_scmsvn	adds	Ajouts
plugin_scmsvn	commits	Commits
plugin_scmsvn	realname	Nom
plugin_scmsvn	svn_updates	<strong>$1</strong> commits, <strong>$2</strong> ajouts
plugin_scmsvn	total	Total
plugin_scmsvn	unknown	Inconnu	
